\relax 
\providecommand\hyper@newdestlabel[2]{}
\providecommand*\new@tpo@label[2]{}
\catcode `"\active 
\providecommand\HyperFirstAtBeginDocument{\AtBeginDocument}
\HyperFirstAtBeginDocument{\ifx\hyper@anchor\@undefined
\global\let\oldcontentsline\contentsline
\gdef\contentsline#1#2#3#4{\oldcontentsline{#1}{#2}{#3}}
\global\let\oldnewlabel\newlabel
\gdef\newlabel#1#2{\newlabelxx{#1}#2}
\gdef\newlabelxx#1#2#3#4#5#6{\oldnewlabel{#1}{{#2}{#3}}}
\AtEndDocument{\ifx\hyper@anchor\@undefined
\let\contentsline\oldcontentsline
\let\newlabel\oldnewlabel
\fi}
\fi}
\global\let\hyper@last\relax 
\gdef\HyperFirstAtBeginDocument#1{#1}
\providecommand\HyField@AuxAddToFields[1]{}
\providecommand\HyField@AuxAddToCoFields[2]{}
\bibstyle{alphadin}
\babel@aux{ngerman}{}
\@writefile{toc}{\contentsline {section}{\numberline {1}Aufgabenstellung}{3}{section.1}}
\@writefile{toc}{\contentsline {subsection}{\numberline {1.1}Ziel}{3}{subsection.1.1}}
\@writefile{toc}{\contentsline {subsection}{\numberline {1.2}Anforderungen}{3}{subsection.1.2}}
\@writefile{toc}{\contentsline {subsection}{\numberline {1.3}Teilaufgaben: Emotionserkennung}{3}{subsection.1.3}}
\@writefile{toc}{\contentsline {section}{\numberline {2}Analyse}{3}{section.2}}
\newlabel{analyse}{{2}{3}{Analyse}{section.2}{}}
\@writefile{toc}{\contentsline {section}{\numberline {3}Konzept}{4}{section.3}}
\@writefile{toc}{\contentsline {subsection}{\numberline {3.1}Erster Entwurf}{4}{subsection.3.1}}
\@writefile{lof}{\contentsline {figure}{\numberline {1}{\ignorespaces Klassendiagramm, erster Entwurf}}{5}{figure.1}}
\newlabel{fig1}{{1}{5}{Klassendiagramm, erster Entwurf}{figure.1}{}}
\@writefile{toc}{\contentsline {subsection}{\numberline {3.2}Finaler Entwurf}{5}{subsection.3.2}}
\newlabel{FinalerEntwurf}{{3.2}{5}{Finaler Entwurf}{subsection.3.2}{}}
\@writefile{toc}{\contentsline {subsection}{\numberline {3.3}GUI}{5}{subsection.3.3}}
\@writefile{lof}{\contentsline {figure}{\numberline {2}{\ignorespaces Erster GUI Entwurf}}{6}{figure.2}}
\newlabel{fig2}{{2}{6}{Erster GUI Entwurf}{figure.2}{}}
\@writefile{lof}{\contentsline {figure}{\numberline {3}{\ignorespaces Bild der Ausgabe}}{6}{figure.3}}
\newlabel{display}{{3}{6}{Bild der Ausgabe}{figure.3}{}}
\@writefile{lof}{\contentsline {figure}{\numberline {4}{\ignorespaces Klassendiagramm, finaler Entwurf}}{7}{figure.4}}
\newlabel{fig3}{{4}{7}{Klassendiagramm, finaler Entwurf}{figure.4}{}}
\citation{emojis}
\citation{emojis}
\citation{loomoRepo}
\@writefile{lof}{\contentsline {figure}{\numberline {5}{\ignorespaces Emotionen und deren Emoji Repr\IeC {\"a}sentation \cite  {emojis}}}{8}{figure.5}}
\@writefile{lof}{\contentsline {subfigure}{\numberline{(a)}{\ignorespaces {neutral}}}{8}{figure.5}}
\@writefile{lof}{\contentsline {subfigure}{\numberline{(b)}{\ignorespaces {nachdenklich}}}{8}{figure.5}}
\@writefile{lof}{\contentsline {subfigure}{\numberline{(c)}{\ignorespaces {gl\IeC {\"u}cklich}}}{8}{figure.5}}
\@writefile{lof}{\contentsline {subfigure}{\numberline{(d)}{\ignorespaces {\IeC {\"u}berrascht}}}{8}{figure.5}}
\@writefile{lof}{\contentsline {subfigure}{\numberline{(e)}{\ignorespaces {\IeC {\"a}ngstlich}}}{8}{figure.5}}
\@writefile{lof}{\contentsline {subfigure}{\numberline{(f)}{\ignorespaces {traurig}}}{8}{figure.5}}
\@writefile{lof}{\contentsline {subfigure}{\numberline{(g)}{\ignorespaces {angewidert}}}{8}{figure.5}}
\@writefile{lof}{\contentsline {subfigure}{\numberline{(h)}{\ignorespaces {w\IeC {\"u}tend}}}{8}{figure.5}}
\newlabel{fig4}{{5}{8}{Emotionen und deren Emoji Repräsentation \cite {emojis}}{figure.5}{}}
\@writefile{toc}{\contentsline {section}{\numberline {4}Implementierung}{8}{section.4}}
\@writefile{toc}{\contentsline {subsection}{\numberline {4.1}Architektur}{8}{subsection.4.1}}
\@writefile{toc}{\contentsline {subsubsection}{\numberline {4.1.1}Camera2VideoFragment}{8}{subsubsection.4.1.1}}
\newlabel{Geischtserkennung}{{4.1.1}{8}{Camera2VideoFragment}{subsubsection.4.1.1}{}}
\@writefile{lol}{\contentsline {lstlisting}{code/Camera2VideoFragment.java}{8}{lstlisting.-1}}
\citation{androidFace}
\citation{androidRectF}
\@writefile{lol}{\contentsline {lstlisting}{code/Camera2VideoFragment.java}{9}{lstlisting.-2}}
\@writefile{toc}{\contentsline {subsubsection}{\numberline {4.1.2}FaceRepository}{9}{subsubsection.4.1.2}}
\@writefile{toc}{\contentsline {subsubsection}{\numberline {4.1.3}EmojiFace}{9}{subsubsection.4.1.3}}
\@writefile{toc}{\contentsline {subsubsection}{\numberline {4.1.4}ImageProcessor}{10}{subsubsection.4.1.4}}
\@writefile{toc}{\contentsline {subsubsection}{\numberline {4.1.5}TensorFlow}{10}{subsubsection.4.1.5}}
\@writefile{toc}{\contentsline {subsubsection}{\numberline {4.1.6}Emotion}{10}{subsubsection.4.1.6}}
\@writefile{toc}{\contentsline {subsubsection}{\numberline {4.1.7}AutoFitDrawableView}{10}{subsubsection.4.1.7}}
\@writefile{lol}{\contentsline {lstlisting}{code/AutoFitDrawableView.java}{11}{lstlisting.-6}}
\@writefile{toc}{\contentsline {subsection}{\numberline {4.2}Verworfene Technologien}{11}{subsection.4.2}}
\citation{kivy}
\citation{Kaggle}
\@writefile{toc}{\contentsline {subsubsection}{\numberline {4.2.1}OpenCV}{12}{subsubsection.4.2.1}}
\newlabel{OpenCV}{{4.2.1}{12}{OpenCV}{subsubsection.4.2.1}{}}
\@writefile{toc}{\contentsline {subsubsection}{\numberline {4.2.2}Python f\IeC {\"u}r Android}{12}{subsubsection.4.2.2}}
\@writefile{toc}{\contentsline {section}{\numberline {5}Nutzung von TensorFlow in der App}{12}{section.5}}
\@writefile{toc}{\contentsline {section}{\numberline {6}Probleme}{12}{section.6}}
\@writefile{toc}{\contentsline {subsection}{\numberline {6.1}Workflow}{12}{subsection.6.1}}
\@writefile{toc}{\contentsline {subsection}{\numberline {6.2}Weiterhin auftretende Probleme}{12}{subsection.6.2}}
\citation{tensorPoets}
\@writefile{toc}{\contentsline {section}{\numberline {7}Benutzung}{13}{section.7}}
\@writefile{toc}{\contentsline {subsection}{\numberline {7.1}Android Studio}{13}{subsection.7.1}}
\@writefile{toc}{\contentsline {subsection}{\numberline {7.2}Erstellung des Modells mittels TensorFlow}{13}{subsection.7.2}}
\@writefile{toc}{\contentsline {subsection}{\numberline {7.3}Loomo}{13}{subsection.7.3}}
\@writefile{toc}{\contentsline {section}{\numberline {8}Ausblick}{13}{section.8}}
\@writefile{lof}{\contentsline {figure}{\numberline {6}{\ignorespaces Einstellungen f\IeC {\"u}r den Entwicklermodus}}{14}{figure.6}}
\newlabel{settings}{{6}{14}{Einstellungen für den Entwicklermodus}{figure.6}{}}
\bibcite{Kaggle}{1}
\bibcite{kivy}{2}
\bibcite{androidFace}{3}
\bibcite{androidRectF}{4}
\bibcite{emojiLizenz}{5}
\bibcite{loomoRepo}{6}
\bibcite{tensorPoets}{7}
\bibcite{emojis}{8}
\@writefile{toc}{\contentsline {section}{\nonumberline Literatur}{15}{section*.2}}
\global\@namedef{scr@dte@section@lastmaxnumwidth}{10.46805pt}
\global\@namedef{scr@dte@subsection@lastmaxnumwidth}{18.0674pt}
\global\@namedef{scr@dte@subsubsection@lastmaxnumwidth}{26.27988pt}
